EGM_Data_Analysis.utf8.md
…
#daily total contrbution
 #install.packages("ggplot2")

date_sum <- egm_data %>% 
  group_by(( date)) %>% 
  mutate(sum_of = sum(n_of_participants))
    
date_sum    

## # A tibble: 1,362 x 17
## # Groups:   (date) [76]
##    date  pension_fund_co~ n_of_participan~ fund_size_parti~
##    <chr> <chr>                       <dbl>            <dbl>
##  1 06.0~ Axa Hayat ve Em~            33327        210804109
##  2 06.0~ BNP Paribas Car~           187289       1545869615
##  3 06.0~ Cigna Finans Em~           122997        564291355
##  4 06.0~ Fiba Emeklilik ~            38754        247746061
##  5 06.0~ Garanti Emeklil~          1134051       8416458527
##  6 06.0~ Groupama Emekli~            62080        808664284
##  7 06.0~ Halk Hayat ve E~           445422       1948976004
##  8 06.0~ Katilim Emeklil~           162207        533523277
##  9 06.0~ Metlife Emeklil~           179609       1015462865
## 10 06.0~ NN Hayat ve Eme~           268929       2078148069
## # ... with 1,352 more rows, and 13 more variables: gov_contribution <dbl>,
## #   contribution <dbl>, n_of_pensioners <chr>, n_of_ind_contracts <dbl>,
## #   n_of_group_ind_contracts <chr>,
## #   n_of_employer_group_certificates <chr>, n_total <dbl>,
## #   size_of_ind_contracts <dbl>, size_of_group_ind_contracts <dbl>,
## #   size_of_employer_group_certificates <dbl>, size_total <dbl>,
## #   `(date)` <chr>, sum_of <dbl>
…
egm_data

## # A tibble: 1,362 x 15
##    date  pension_fund_co~ n_of_participan~ fund_size_parti~
##    <chr> <chr>                       <dbl>            <dbl>
##  1 06.0~ Axa Hayat ve Em~            33327        210804109
##  2 06.0~ BNP Paribas Car~           187289       1545869615
##  3 06.0~ Cigna Finans Em~           122997        564291355
##  4 06.0~ Fiba Emeklilik ~            38754        247746061
##  5 06.0~ Garanti Emeklil~          1134051       8416458527
##  6 06.0~ Groupama Emekli~            62080        808664284
##  7 06.0~ Halk Hayat ve E~           445422       1948976004
##  8 06.0~ Katilim Emeklil~           162207        533523277
##  9 06.0~ Metlife Emeklil~           179609       1015462865
## 10 06.0~ NN Hayat ve Eme~           268929       2078148069
## # ... with 1,352 more rows, and 11 more variables: gov_contribution <dbl>,
## #   contribution <dbl>, n_of_pensioners <chr>, n_of_ind_contracts <dbl>,
## #   n_of_group_ind_contracts <chr>,
## #   n_of_employer_group_certificates <chr>, n_total <dbl>,
## #   size_of_ind_contracts <dbl>, size_of_group_ind_contracts <dbl>,
## #   size_of_employer_group_certificates <dbl>, size_total <dbl>
…
egm_data

## # A tibble: 1,362 x 15
##    date  pension_fund_co~ n_of_participan~ fund_size_parti~
##    <chr> <chr>                       <dbl>            <dbl>
##  1 06.0~ Axa Hayat ve Em~            33327        210804109
##  2 06.0~ BNP Paribas Car~           187289       1545869615
##  3 06.0~ Cigna Finans Em~           122997        564291355
##  4 06.0~ Fiba Emeklilik ~            38754        247746061
##  5 06.0~ Garanti Emeklil~          1134051       8416458527
##  6 06.0~ Groupama Emekli~            62080        808664284
##  7 06.0~ Halk Hayat ve E~           445422       1948976004
##  8 06.0~ Katilim Emeklil~           162207        533523277
##  9 06.0~ Metlife Emeklil~           179609       1015462865
## 10 06.0~ NN Hayat ve Eme~           268929       2078148069
## # ... with 1,352 more rows, and 11 more variables: gov_contribution <dbl>,
## #   contribution <dbl>, n_of_pensioners <chr>, n_of_ind_contracts <dbl>,
## #   n_of_group_ind_contracts <chr>,
## #   n_of_employer_group_certificates <chr>, n_total <dbl>,
## #   size_of_ind_contracts <dbl>, size_of_group_ind_contracts <dbl>,
## #   size_of_employer_group_certificates <dbl>, size_total <dbl>
…
